{"_etag":"521578331145775113c72d536fa0ad55","_items":[{"id":"gold","displayOrder":9999,"category":"Material","rarity":"Common","description":"Consumed in Shop and other Features.","name":"Gold","maxCopies":-1,"tokenStandard":"","tokenAddress":"","tokenId":"","imageUrl":"https://storage.googleapis.com/origin-production/assets/item/gold.png","updatedAt":1663127051,"_etag":"da7826bc1116def99b6446e0a7fc7d67"},{"id":"exp","displayOrder":9999,"category":"Material","rarity":"Common","description":"Experience to level up.","name":"Exp","maxCopies":-1,"tokenStandard":"","tokenAddress":"","tokenId":"","imageUrl":"https://storage.googleapis.com/origin-production/assets/item/exp.png","updatedAt":1663127051,"_etag":"83a8f890857b16fb894660d4914d1dea"},{"id":"crafting_exp","displayOrder":9999,"category":"Material","rarity":"Common","description":"Crafting Experience","name":"Crafting Exp","maxCopies":-1,"tokenStandard":"","tokenAddress":"","tokenId":"","imageUrl":"https://storage.googleapis.com/origin-production/assets/item/exp.png","updatedAt":1663127051,"_etag":"32e0cde50b4a0c948c01e8b8cb6e1895"},{"id":"star","displayOrder":9999,"category":"Material","rarity":"Common","description":"Battle Star(s) collected from PVE Mode.","name":"Star","maxCopies":-1,"tokenStandard":"","tokenAddress":"","tokenId":"","imageUrl":"https://storage.googleapis.com/origin-production/assets/item/star.png","updatedAt":1663127051,"_etag":"1ecf322b40b10ee980d49a2afb3de5fb"},{"id":"ecard_bug_4001_s0","displayOrder":20340011,"category":"Special","rarity":"Mystic","description":"(Enhance any card)\nAdd \u003cInnate\u003e.","name":"Secret Cocoon","maxCopies":-1,"tokenStandard":"","tokenAddress":"","tokenId":"","imageUrl":"https://storage.googleapis.com/origin-production/assets/item/ecard_bug_5003.png","updatedAt":1663127051,"_etag":"f4c23f3f590c8b16d1e24cdbb2f343f1"},{"id":"feature_tournament","category":"Special","rarity":"Common","name":"Tournaments","maxCopies":2,"tokenStandard":"","tokenAddress":"","tokenId":"","imageUrl":"https://storage.googleapis.com/origin-production/assets/item/feature_tournament.png","updatedAt":1663127051,"_etag":"f6133d60d65cce4314977530b2719a68"},{"id":"avt_chung_cake_lunar23","displayOrder":1,"category":"Cosmetic","rarity":"Common","description":"Avatar","name":"Delicious Cake","maxCopies":-1,"tokenStandard":"","tokenAddress":"","tokenId":"","imageUrl":"https://storage.googleapis.com/origin-production/assets/avatar/chung_cake_lunar23.png","updatedAt":1674012940,"_etag":"0d0129127437f3806010da960aa6daa9"},{"id":"feature_daily_rewards","category":"Special","rarity":"Common","name":"Daily Reward","maxCopies":2,"tokenStandard":"","tokenAddress":"","tokenId":"","imageUrl":"https://storage.googleapis.com/origin-production/assets/item/secret.png","updatedAt":1677036175,"_etag":"361f2daca0f6742e5a8c0cda757e87e7"},{"id":"ecard_reptile_4003_s1_nft","displayOrder":20740030,"category":"Special","rarity":"Mystic","description":"(Enhance an Attack card)\nAttack applies 2 {Poison}.","name":"Viper's Venom","maxCopies":-1,"tokenStandard":"ERC1155","tokenAddress":"0x814A9C959a3Ef6CA44b5e2349e3bBa9845393947","tokenId":"2001066","imageUrl":"https://storage.googleapis.com/origin-production/assets/item/ecard_reptile_5005.png","updatedAt":1663127187,"_etag":"e486f59d3f46e9f8a7e7bbd25d05a3a1"},{"id":"ecard_beast_4002","displayOrder":20220010,"category":"Special","rarity":"Rare","description":"(Enhance any card)\nAxie's max HP +12","name":"Beast's Charm of Vitality I","maxCopies":-1,"tokenStandard":"","tokenAddress":"","tokenId":"","imageUrl":"https://storage.googleapis.com/origin-production/assets/item/ecard_beast_4002.png","updatedAt":1663127051,"_etag":"7e6af904941496ee1eec3db70e39abe1"},{"id":"avt_lion_dance_lunar23","displayOrder":1,"category":"Cosmetic","rarity":"Common","description":"Avatar","name":"Triumphant Lion Dance","maxCopies":-1,"tokenStandard":"","tokenAddress":"","tokenId":"","imageUrl":"https://storage.googleapis.com/origin-production/assets/avatar/lion_dance_lunar23.png","updatedAt":1674012940,"_etag":"20213e98ee8bd16f18efcba31e9b3969"},{"id":"avt_0","displayOrder":1,"category":"Cosmetic","rarity":"Common","description":"Default Avatar","name":"Zen (Starter)","maxCopies":-1,"tokenStandard":"","tokenAddress":"","tokenId":"","imageUrl":"https://storage.googleapis.com/origin-production/assets/avatar/0.png","updatedAt":1663127187,"_etag":"811331fae43af3fb228ec96e193813b6"},{"id":"moon_crystal","displayOrder":10,"category":"Material","rarity":"Rare","description":"Used when crafting: Reduced chance of Rare.\nLimited to Intermediate Recipes and above.","inventoryDisplay":true,"name":"Moon Dust (Basic)","maxCopies":-1,"tokenStandard":"","tokenAddress":"","tokenId":"","imageUrl":"https://storage.googleapis.com/origin-production/assets/item/moon_crystal.png","updatedAt":1663127051,"_etag":"4f5aa7ac0d905036bed04f4fefa36d94"},{"id":"ecard_bug_3012_s6_nft","displayOrder":10330120,"category":"Special","rarity":"Epic","description":"(Alter Any)\n+2 {Cocoon}.","name":"Secret Cocoon","maxCopies":-1,"tokenStandard":"ERC1155","tokenAddress":"0x814A9C959a3Ef6CA44b5e2349e3bBa9845393947","tokenId":"2006035","imageUrl":"https://storage.googleapis.com/origin-production/assets/item/ecard_bug_5003.png","updatedAt":1695784928,"_etag":"355457d741a0ebb34f1c5f39a27920d2"},{"id":"lunar_blessing","displayOrder":11,"category":"Material","rarity":"Epic","description":"Used when crafting: Reduced chance of Rare and increased chance of Epic.\nLimited to Intermediate Recipes and above.","inventoryDisplay":true,"name":"Moon Dust (Epic)","maxCopies":-1,"tokenStandard":"","tokenAddress":"","tokenId":"","imageUrl":"https://storage.googleapis.com/origin-production/assets/item/lunar_blessing.png","updatedAt":1663127051,"_etag":"e20aaaf216f6abbf010b4a661b8fbcd1"},{"id":"axie_shufen","displayOrder":5,"category":"Axie","rarity":"Rare","description":"Starter Axie. Class: Dusk.","name":"Shu Fen","maxCopies":1,"tokenStandard":"","tokenAddress":"","tokenId":"","imageUrl":"https://storage.googleapis.com/origin-production/assets/item/axie_shufen.png","updatedAt":1727235679,"_etag":"e31d62a5daa41cd192a537d6c458c12f"},{"id":"ancient_crescent","displayOrder":13,"category":"Material","rarity":"Epic","description":"Used when crafting: Increased chance of a Rune.","inventoryDisplay":true,"name":"Ancient Moonstone","maxCopies":-1,"tokenStandard":"","tokenAddress":"","tokenId":"","imageUrl":"https://storage.googleapis.com/origin-production/assets/item/ancient_crescent.png","updatedAt":1663127051,"_etag":"6d1d88b512e5816fc4ef1d54d9721a74"},{"id":"ecard_beast_4003","displayOrder":20230030,"category":"Special","rarity":"Epic","description":"(Enhance any Attack card)\nAll teammates gain 1 {Rage}.","name":"Mask of Frenzy","maxCopies":-1,"tokenStandard":"","tokenAddress":"","tokenId":"","imageUrl":"https://storage.googleapis.com/origin-production/assets/item/ecard_beast_4003.png","updatedAt":1663127051,"_etag":"aef506163d5516f1fb6fda9b454f3264"},{"id":"ecard_neutral_2014_s4_nft","displayOrder":10120140,"category":"Special","rarity":"Rare","description":"(Alter Heals)\nHeal +6.","name":"Charm of Faith II","maxCopies":-1,"tokenStandard":"ERC1155","tokenAddress":"0x814A9C959a3Ef6CA44b5e2349e3bBa9845393947","tokenId":"2004005","imageUrl":"https://storage.googleapis.com/origin-production/assets/item/ecard_neutral_2005.png","updatedAt":1681874004,"_etag":"692764f5f958d474e193bf436f6124c3"},{"id":"ecard_plant_2011_s4_nft","displayOrder":10520110,"category":"Special","rarity":"Rare","description":"(Alter Any)\nMax HP +10.","name":"Plant's Charm of Vitality I","maxCopies":-1,"tokenStandard":"ERC1155","tokenAddress":"0x814A9C959a3Ef6CA44b5e2349e3bBa9845393947","tokenId":"2004045","imageUrl":"https://storage.googleapis.com/origin-production/assets/item/ecard_plant_2011.png","updatedAt":1681874004,"_etag":"76bfc09841c453acfd65db9a069cadc2"}],"_metadata":{"limit":20,"offset":0,"total":17105,"hasNext":true}}
